01.01.2018;Books;milk;46546;50;0
02.01.2018;Books;mouse;54322;1000;0
03.01.2018;Books;ruler;54353;60;0
04.01.2018;Books;notebook;54353;80;0
05.01.2018;Books;tabletPC;67864;10000;0
06.01.2018;Books;fridge;74421;15000;0
07.01.2018;Books;headphones;74421;1500;0
08.01.2018;Books;bait;67864;15;0
14.01.2018;Books;chiken;99999;70;0
03.02.2018;Books;scraping;46546;10;0
05.02.2018;Books;compass;99999;30;0
